{
  "LocalShell": {
    "description": "默认的系统Shell",
    "executable": "cmd.exe",
    "args": [],
    "endl": "\r\n",
    "encoding": "gbk"
  },
  "BASH": {
    "description": "GNU Bash (Cygwin)",
    "executable": "bash.exe",
    "args": [],
    "endl": "\n",
    "encoding": "UTF-8"
  },
  "CMD": {
    "description": "Windows 命令提示符",
    "executable": "cmd.exe",
    "args": [],
    "endl": "\r\n",
    "encoding": "gbk"
  },
  "NSLOOKUP": {
    "description": "域名查询",
    "executable": "nslookup.exe",
    "args": [],
    "endl": "\r\n",
    "encoding": "gbk"
  },
  "LightsBoxServer": {
    "description": "远程服务器: LightsBoxServer",
    "executable": "ssh.exe",
    "args": [
      "minecraft@fsdx-1.qconn.win",
      "-p",
      "10052",
      "-T"
    ],
    "endl": "\n",
    "encoding": "UTF-8"
  }
}
